Data Visualization
…
# Splitting on a quantitative variable

* Start by converting the quantitative variable into a cateogorical one

For example:

```r
penguins %>% 
  mutate(bill_categories = cut_number(bill_length_mm, n = 4)) %>%
  select(species, bill_length_mm, bill_categories, everything())
```

```
## # A tibble: 344 x 9
##    species bill_length_mm bill_categories island bill_depth_mm flipper_length_…
##    <fct>            <dbl> <fct>           <fct>          <dbl>            <int>
##  1 Adelie            39.1 [32.1,39.2]     Torge…          18.7              181
##  2 Adelie            39.5 (39.2,44.5]     Torge…          17.4              186
##  3 Adelie            40.3 (39.2,44.5]     Torge…          18                195
##  4 Adelie            NA   <NA>            Torge…          NA                 NA
##  5 Adelie            36.7 [32.1,39.2]     Torge…          19.3              193
##  6 Adelie            39.3 (39.2,44.5]     Torge…          20.6              190
##  7 Adelie            38.9 [32.1,39.2]     Torge…          17.8              181
##  8 Adelie            39.2 [32.1,39.2]     Torge…          19.6              195
##  9 Adelie            34.1 [32.1,39.2]     Torge…          18.1              193
## 10 Adelie            42   (39.2,44.5]     Torge…          20.2              190
## # … with 334 more rows, and 3 more variables: body_mass_g <int>, sex <fct>,
## #   year <int>
```
…
