Live coding 5
…
Lets make a table that lists manufacturer, model, and then in two columns the average city fuel consumption for each year in the data.

First we compute average fuel consumption for each combination of manufacturer, model, and year. Then pivot the data to make a wider table (it will be 38 rows by 4 columns when we are done). Store the result in your environment by giving the new table a name, so that we can use formatting tools in the next section to display it nicely.

table1 <- mpg  %>% group_by(model, manufacturer, year) %>%
  summarise(avg_mpg_city = mean(cty))   %>%
  pivot_wider(names_from = year, values_from = avg_mpg_city)

## `summarise()` regrouping output by 'model', 'manufacturer' (override with `.groups` argument)

table1

## # A tibble: 38 x 4
## # Groups:   model, manufacturer [38]
##    model              manufacturer `1999` `2008`
##    <chr>              <chr>         <dbl>  <dbl>
##  1 4runner 4wd        toyota         15.2   15  
##  2 a4                 audi           18.2   19.7
##  3 a4 quattro         audi           16.5   17.8
##  4 a6 quattro         audi           15     16.5
##  5 altima             nissan         20     21  
##  6 c1500 suburban 2wd chevrolet      13     12.8
##  7 camry              toyota         19.5   20.3
##  8 camry solara       toyota         19.5   20.3
##  9 caravan 2wd        dodge          16.2   15.4
## 10 civic              honda          24.8   24  
## #  with 28 more rows

Clean up the transmission column to put the parenthetical codes (av, l5, m6, etc) in their own column using separate.

mpg %>% separate(trans, into = c("trans_type", "trans_code"), sep ="\\(", remove = FALSE) %>%
  mutate(trans_code = str_remove(trans_code, "\\)"))

## # A tibble: 234 x 13
##    manufacturer model displ  year   cyl trans trans_type trans_code drv     cty
##    <chr>        <chr> <dbl> <int> <int> <chr> <chr>      <chr>      <chr> <int>
##  1 audi         a4      1.8  1999     4 auto auto       l5         f        18
##  2 audi         a4      1.8  1999     4 manu manual     m5         f        21
##  3 audi         a4      2    2008     4 manu manual     m6         f        20
##  4 audi         a4      2    2008     4 auto auto       av         f        21
##  5 audi         a4      2.8  1999     6 auto auto       l5         f        16
##  6 audi         a4      2.8  1999     6 manu manual     m5         f        18
##  7 audi         a4      3.1  2008     6 auto auto       av         f        18
##  8 audi         a4 q   1.8  1999     4 manu manual     m5         4        18
##  9 audi         a4 q   1.8  1999     4 auto auto       l5         4        16
## 10 audi         a4 q   2    2008     4 manu manual     m6         4        20
## #  with 224 more rows, and 3 more variables: hwy <int>, fl <chr>, class <chr>
…
This is a time series object, which is displayed as a rectangle, but does not have variable names and doesnt work like a data frame (or tibble).

Suppose instead, someone gave you this data formatted as a data frame with each month in its own column:

co2M <- matrix(co2, 39, 12, byrow = TRUE)
colnames(co2M) <- c("Jan", "Feb", "Mar", "Apr", "May", "Jun", 
                    "Jul", "Aug", "Sep", "Oct", "Nov", "Dec")
co2DF <- as_tibble(co2M) %>% mutate(Year = 1959:1997) %>% select(Year, everything())
co2DF

## # A tibble: 39 x 13
##     Year   Jan   Feb   Mar   Apr   May   Jun   Jul   Aug   Sep   Oct   Nov   Dec
##    <int> <dbl> <dbl> <dbl> <dbl> <dbl> <dbl> <dbl> <dbl> <dbl> <dbl> <dbl> <dbl>
##  1  1959  315.  316.  316.  318.  318.  318   316.  315.  314.  313.  315.  315.
##  2  1960  316.  317.  317.  319.  320.  319.  318.  316.  314   314.  315.  316.
##  3  1961  317.  318.  318.  319.  320.  320.  318.  317.  315.  315.  316.  317.
##  4  1962  318.  318.  320.  320.  321.  320.  319.  317.  316.  315.  317.  318.
##  5  1963  319.  319.  320.  321.  322.  321.  320.  318.  316.  316.  317.  318.
##  6  1964  319.  320.  321.  321.  322.  322.  320.  319.  317.  317.  318.  319.
##  7  1965  319.  320.  321.  322.  322   322.  321.  319.  318.  317.  319.  319.
##  8  1966  320.  321.  322.  324.  324.  324.  322.  320.  318.  318.  320.  321.
##  9  1967  322.  322.  323.  324.  325.  324.  322.  321.  319.  319.  321.  322.
## 10  1968  322.  323.  324.  325.  325.  325.  324.  322.  320.  320.  321.  323.
## #  with 29 more rows

Now, use pivot_longer to reshape this into a tidy data frame with a column for year, a column for month, and a column for CO2 concentration.

co2DF %>% select(Jun:Aug, Oct:Dec, everything())

## # A tibble: 39 x 13
##      Jun   Jul   Aug   Oct   Nov   Dec  Year   Jan   Feb   Mar   Apr   May   Sep
##    <dbl> <dbl> <dbl> <dbl> <dbl> <dbl> <int> <dbl> <dbl> <dbl> <dbl> <dbl> <dbl>
##  1  318   316.  315.  313.  315.  315.  1959  315.  316.  316.  318.  318.  314.
##  2  319.  318.  316.  314.  315.  316.  1960  316.  317.  317.  319.  320.  314 
##  3  320.  318.  317.  315.  316.  317.  1961  317.  318.  318.  319.  320.  315.
##  4  320.  319.  317.  315.  317.  318.  1962  318.  318.  320.  320.  321.  316.
##  5  321.  320.  318.  316.  317.  318.  1963  319.  319.  320.  321.  322.  316.
##  6  322.  320.  319.  317.  318.  319.  1964  319.  320.  321.  321.  322.  317.
##  7  322.  321.  319.  317.  319.  319.  1965  319.  320.  321.  322.  322   318.
##  8  324.  322.  320.  318.  320.  321.  1966  320.  321.  322.  324.  324.  318.
##  9  324.  322.  321.  319.  321.  322.  1967  322.  322.  323.  324.  325.  319.
## 10  325.  324.  322.  320.  321.  323.  1968  322.  323.  324.  325.  325.  320.
## #  with 29 more rows

co2Y <- co2DF %>% # select(Year, Jun:Aug, Oct:Dec) %>%
  pivot_longer(cols = Jan:Dec, names_to= "month", values_to = "pCO2")
co2Y

## # A tibble: 468 x 3
##     Year month  pCO2
##    <int> <chr> <dbl>
##  1  1959 Jan    315.
##  2  1959 Feb    316.
##  3  1959 Mar    316.
##  4  1959 Apr    318.
##  5  1959 May    318.
##  6  1959 Jun    318 
##  7  1959 Jul    316.
##  8  1959 Aug    315.
##  9  1959 Sep    314.
## 10  1959 Oct    313.
## #  with 458 more rows
…
library(gapminder)
gapminder %>% filter(country %in% c("Canada", "Brazil", "China"))

## # A tibble: 36 x 6
##    country continent  year lifeExp       pop gdpPercap
##    <fct>   <fct>     <int>   <dbl>     <int>     <dbl>
##  1 Brazil  Americas   1952    50.9  56602560     2109.
##  2 Brazil  Americas   1957    53.3  65551171     2487.
##  3 Brazil  Americas   1962    55.7  76039390     3337.
##  4 Brazil  Americas   1967    57.6  88049823     3430.
##  5 Brazil  Americas   1972    59.5 100840058     4986.
##  6 Brazil  Americas   1977    61.5 114313951     6660.
##  7 Brazil  Americas   1982    63.3 128962939     7031.
##  8 Brazil  Americas   1987    65.2 142938076     7807.
##  9 Brazil  Americas   1992    67.1 155975974     6950.
## 10 Brazil  Americas   1997    69.4 168546719     7958.
## #  with 26 more rows

gapminder %>% filter(country == "Canada" | country == "Brazil" | country == "China") # same result

## # A tibble: 36 x 6
##    country continent  year lifeExp       pop gdpPercap
##    <fct>   <fct>     <int>   <dbl>     <int>     <dbl>
##  1 Brazil  Americas   1952    50.9  56602560     2109.
##  2 Brazil  Americas   1957    53.3  65551171     2487.
##  3 Brazil  Americas   1962    55.7  76039390     3337.
##  4 Brazil  Americas   1967    57.6  88049823     3430.
##  5 Brazil  Americas   1972    59.5 100840058     4986.
##  6 Brazil  Americas   1977    61.5 114313951     6660.
##  7 Brazil  Americas   1982    63.3 128962939     7031.
##  8 Brazil  Americas   1987    65.2 142938076     7807.
##  9 Brazil  Americas   1992    67.1 155975974     6950.
## 10 Brazil  Americas   1997    69.4 168546719     7958.
## #  with 26 more rows
