Live coding 8
…
tidy(km1)

## # A tibble: 4 x 6
##   turbine_rated_capacity_k hub_height_m rotor_diameter_m  size withinss cluster
##                       <dbl>        <dbl>            <dbl> <int>    <dbl> <fct>  
## 1                    -0.426       -0.300           -0.578  2376     927. 1      
## 2                    -2.08        -2.26            -2.42    421     182. 2      
## 3                     0.213        0.146            0.414  2945    2488. 3      
## 4                     1.71         1.67             1.59    736    1175. 4

Use augment on the result and combine with the original data frame. Make a plot of clusters and show some other categorical data.

augment(km1, wind_turbines_no_na)

## # A tibble: 6,478 x 16
##    objectid province_territo project_name    total_project_ca turbine_identif
##       <dbl> <chr>             <chr>                       <dbl> <chr>           
##  1        1 Alberta           Optimist Wind               0.9  OWE1            
##  2        2 Alberta           Castle River W             44    CRW1            
##  3        3 Alberta           Waterton Wind               3.78 WWT1            
##  4        4 Alberta           Waterton Wind               3.78 WWT2            
##  5        5 Alberta           Waterton Wind               3.78 WWT3            
##  6        6 Alberta           Waterton Wind               3.78 WWT4            
##  7        7 Alberta           Cowley North                19.5  CON1            
##  8        8 Alberta           Cowley North                19.5  CON2            
##  9        9 Alberta           Cowley North                19.5  CON3            
## 10       10 Alberta           Cowley North                19.5  CON4            
## #  with 6,468 more rows, and 11 more variables:
## #   turbine_number_in_project <chr>, turbine_rated_capacity_k_w <dbl>,
## #   rotor_diameter_m <dbl>, hub_height_m <dbl>, manufacturer <chr>,
## #   model <chr>, commissioning_date <chr>, latitude <dbl>, longitude <dbl>,
## #   notes <chr>, .cluster <fct>
…
