Live coding 4
…
Summarizing data

These tools are in the dplyr package. There are lots of functions (look in the help for the package dplyr), but we have focussed on four: filter, group_by, mutate, and summarise. These tools allow you to manipulate a large dataset to extract information.

Lets use the penguin data from palmerpenguins (see the setup code block starting at line 8.)

Before we start, familiarize yourself with the data by typing View(penguins) or glimpse(penguins) into the console.

filter

Lets get only the rows of Adelie penguins from Biscoe island.

penguins %>% filter(species == "Adelie" & island == "Biscoe")

## # A tibble: 44 x 8
##    species island bill_length_mm bill_depth_mm flipper_length_ body_mass_g
##    <fct>   <fct>           <dbl>         <dbl>            <int>       <int>
##  1 Adelie  Biscoe           37.8          18.3              174        3400
##  2 Adelie  Biscoe           37.7          18.7              180        3600
##  3 Adelie  Biscoe           35.9          19.2              189        3800
##  4 Adelie  Biscoe           38.2          18.1              185        3950
##  5 Adelie  Biscoe           38.8          17.2              180        3800
##  6 Adelie  Biscoe           35.3          18.9              187        3800
##  7 Adelie  Biscoe           40.6          18.6              183        3550
##  8 Adelie  Biscoe           40.5          17.9              187        3200
##  9 Adelie  Biscoe           37.9          18.6              172        3150
## 10 Adelie  Biscoe           40.5          18.9              180        3950
## #  with 34 more rows, and 2 more variables: sex <fct>, year <int>

Now get all the rows that are either Adelies OR are on Biscoe Island.

penguins %>% filter(species == "Adelie" | island == "Biscoe")

## # A tibble: 276 x 8
##    species island bill_length_mm bill_depth_mm flipper_length_ body_mass_g
##    <fct>   <fct>           <dbl>         <dbl>            <int>       <int>
##  1 Adelie  Torge           39.1          18.7              181        3750
##  2 Adelie  Torge           39.5          17.4              186        3800
##  3 Adelie  Torge           40.3          18                195        3250
##  4 Adelie  Torge           NA            NA                 NA          NA
##  5 Adelie  Torge           36.7          19.3              193        3450
##  6 Adelie  Torge           39.3          20.6              190        3650
##  7 Adelie  Torge           38.9          17.8              181        3625
##  8 Adelie  Torge           39.2          19.6              195        4675
##  9 Adelie  Torge           34.1          18.1              193        3475
## 10 Adelie  Torge           42            20.2              190        4250
## #  with 266 more rows, and 2 more variables: sex <fct>, year <int>
…
mutate

Mutate adds a new variable to each row.

Compute a bill to flipper ratio equal to the bill length divided by flipper length.

penguins %>% mutate(bill_flipper_ratio = bill_length_mm / flipper_length_mm)

## # A tibble: 344 x 9
##    species island bill_length_mm bill_depth_mm flipper_length_ body_mass_g
##    <fct>   <fct>           <dbl>         <dbl>            <int>       <int>
##  1 Adelie  Torge           39.1          18.7              181        3750
##  2 Adelie  Torge           39.5          17.4              186        3800
##  3 Adelie  Torge           40.3          18                195        3250
##  4 Adelie  Torge           NA            NA                 NA          NA
##  5 Adelie  Torge           36.7          19.3              193        3450
##  6 Adelie  Torge           39.3          20.6              190        3650
##  7 Adelie  Torge           38.9          17.8              181        3625
##  8 Adelie  Torge           39.2          19.6              195        4675
##  9 Adelie  Torge           34.1          18.1              193        3475
## 10 Adelie  Torge           42            20.2              190        4250
## #  with 334 more rows, and 3 more variables: sex <fct>, year <int>,
## #   bill_flipper_ratio <dbl>

Create a new variable that is the maximum flipper length.

penguins %>% mutate(bill_flipper_ratio_max = max(bill_length_mm / flipper_length_mm, na.rm=TRUE))

## # A tibble: 344 x 9
##    species island bill_length_mm bill_depth_mm flipper_length_ body_mass_g
##    <fct>   <fct>           <dbl>         <dbl>            <int>       <int>
##  1 Adelie  Torge           39.1          18.7              181        3750
##  2 Adelie  Torge           39.5          17.4              186        3800
##  3 Adelie  Torge           40.3          18                195        3250
##  4 Adelie  Torge           NA            NA                 NA          NA
##  5 Adelie  Torge           36.7          19.3              193        3450
##  6 Adelie  Torge           39.3          20.6              190        3650
##  7 Adelie  Torge           38.9          17.8              181        3625
##  8 Adelie  Torge           39.2          19.6              195        4675
##  9 Adelie  Torge           34.1          18.1              193        3475
## 10 Adelie  Torge           42            20.2              190        4250
## #  with 334 more rows, and 3 more variables: sex <fct>, year <int>,
## #   bill_flipper_ratio_max <dbl>

Compute a scaled bill to flipper ratio, so that the maximum ratio is 1.

penguins %>% mutate(bill_flipper_ratio_scaled = (bill_length_mm / flipper_length_mm) / max(bill_length_mm / flipper_length_mm, na.rm=TRUE))

## # A tibble: 344 x 9
##    species island bill_length_mm bill_depth_mm flipper_length_ body_mass_g
##    <fct>   <fct>           <dbl>         <dbl>            <int>       <int>
##  1 Adelie  Torge           39.1          18.7              181        3750
##  2 Adelie  Torge           39.5          17.4              186        3800
##  3 Adelie  Torge           40.3          18                195        3250
##  4 Adelie  Torge           NA            NA                 NA          NA
##  5 Adelie  Torge           36.7          19.3              193        3450
##  6 Adelie  Torge           39.3          20.6              190        3650
##  7 Adelie  Torge           38.9          17.8              181        3625
##  8 Adelie  Torge           39.2          19.6              195        4675
##  9 Adelie  Torge           34.1          18.1              193        3475
## 10 Adelie  Torge           42            20.2              190        4250
## #  with 334 more rows, and 3 more variables: sex <fct>, year <int>,
## #   bill_flipper_ratio_scaled <dbl>
…
You can also use group_by with filter and mutate.

Compute the maximum body mass for each penguin species, put that in a new variable, then compute the body mass divided by the maximum body mass.

penguins %>% group_by(species) %>%
  mutate(bm_max = max(body_mass_g, na.rm=TRUE),
         bm_scaled = body_mass_g / max(body_mass_g, na.rm=TRUE))

## # A tibble: 344 x 10
## # Groups:   species [3]
##    species island bill_length_mm bill_depth_mm flipper_length_ body_mass_g
##    <fct>   <fct>           <dbl>         <dbl>            <int>       <int>
##  1 Adelie  Torge           39.1          18.7              181        3750
##  2 Adelie  Torge           39.5          17.4              186        3800
##  3 Adelie  Torge           40.3          18                195        3250
##  4 Adelie  Torge           NA            NA                 NA          NA
##  5 Adelie  Torge           36.7          19.3              193        3450
##  6 Adelie  Torge           39.3          20.6              190        3650
##  7 Adelie  Torge           38.9          17.8              181        3625
##  8 Adelie  Torge           39.2          19.6              195        4675
##  9 Adelie  Torge           34.1          18.1              193        3475
## 10 Adelie  Torge           42            20.2              190        4250
## #  with 334 more rows, and 4 more variables: sex <fct>, year <int>,
## #   bm_max <int>, bm_scaled <dbl>
…
