…
## Data cleaning

Data cleaning tasks are very individual and can take considerable creativity. Here we'll just try a few.

Let's look at the values of `flavour`. It seems like there are a lot of them.


```r
jelly %>% count(flavour) %>% arrange(-n)
```

```
## # A tibble: 43 x 2
##    flavour     n
##    <chr>   <int>
##  1 orange     32
##  2 lemon      23
##  3 cherry     19
##  4 Orange     19
##  5 grape      18
##  6 coconut    14
##  7 Cherry     10
##  8 Banana      9
##  9 Grape       9
## 10 Lemon       9
## # … with 33 more rows
```

We definitely have some duplication. I'll do one correction -- changing all letters to lower case so different capitalizations don't duplicate flavours. (This simple change eliminates 13 different values of flavour.) I'll leave the other corrections as an exercise. You will find spelling errors, different codings (and, +, or neither), and one missing flavour.


```r
jelly %>% mutate(flavour = tolower(flavour)) %>%
  count(flavour) %>% arrange(-n)
```

```
## # A tibble: 30 x 2
##    flavour     n
##    <chr>   <int>
##  1 orange     51
##  2 lemon      32
##  3 cherry     29
##  4 grape      27
##  5 coconut    19
##  6 banana     16
##  7 purple      6
##  8 lime        5
##  9 apple       4
## 10 white       4
## # … with 20 more rows
```
…
Let's compute the average reaction time for correct and incorrect answers for each flavour and each treatment. We will count the number of observations for each grouping too.


```r
jelly %>% group_by(flavour, group_choose_from_drop_down, accuracy_0_incorrect_1_correct) %>%
  summarize(count = n(),
            mean_reaction_time = mean(reaction_time_in_sec))
```

```
## `summarise()` regrouping output by 'flavour', 'group_choose_from_drop_down' (override with `.groups` argument)
```

```
## # A tibble: 58 x 5
## # Groups:   flavour, group_choose_from_drop_down [42]
##    flavour  group_choose_from_dr… accuracy_0_incorrect_1… count mean_reaction_t…
##    <chr>    <chr>                                   <dbl> <int>            <dbl>
##  1 apple    experimental                                0     4            14.7 
##  2 banana   control                                     1     9            12.6 
##  3 banana   experimental                                0     4            24.2 
##  4 banana   experimental                                1     3            17.2 
##  5 blueber… control                                     0     1             5.98
##  6 blueber… experimental                                0     1            20.7 
##  7 bubbleg… control                                     0     1             7.3 
##  8 bubbleg… experimental                                0     2            17.6 
##  9 cherry   control                                     0     4            17.5 
## 10 cherry   control                                     1    12             6.78
## # … with 48 more rows
```
…
