Chapter 19 Finding and accessing data | Data Visualization
…
# Population and projection in a huge table with 2 million rows, 300 MB of data
# cansim::get_cansim("17100057")  
cpi <- cansim::get_cansim("18-10-0004-01")

## Accessing CANSIM NDM product 18-10-0004 from Statistics Canada

## Parsing data

## Folding in metadata

cpi %>% filter(`Products and product groups` == "All-items") %>%
  count(GEO)

## # A tibble: 30 x 2
##    GEO                                                    n
##    <chr>                                              <int>
##  1 Alberta                                              508
##  2 British Columbia                                     508
##  3 Calgary, Alberta                                     600
##  4 Canada                                              1284
##  5 Charlottetown and Summerside, Prince Edward Island   564
##  6 Edmonton, Alberta                                    600
##  7 Halifax, Nova Scotia                                 600
##  8 Iqaluit, Nunavut                                     217
##  9 Manitoba                                             508
## 10 Montréal, Quebec                                     600
## # … with 20 more rows
…
