Chapter 17 GAM and LOESS smoothing | Data Visualization
…
tidy(g1)

## # A tibble: 1 x 5
##   term               edf ref.df statistic p.value
##   <chr>            <dbl>  <dbl>     <dbl>   <dbl>
## 1 s(year_fraction)  8.30      9      531.       0

It is often useful to compute residuals and extract predicted values.

co2 %>% add_residuals(g1) %>% add_fitted(g1)   

## # A tibble: 119 x 8
##     year month decimal_date co2_avg year_fraction co2_anomaly .residual  .value
##    <dbl> <dbl>        <dbl>   <dbl>         <dbl>       <dbl>     <dbl>   <dbl>
##  1  2011     1        2011.    391.        0.0417      -0.322    0.429  -0.750 
##  2  2011     2        2011.    392.        0.125        0.208    0.303  -0.0945
##  3  2011     3        2011.    393.        0.208        0.948    0.144   0.804 
##  4  2011     4        2011.    393.        0.292        1.60    -0.601   2.20  
##  5  2011     5        2011.    394.        0.375        2.54    -0.507   3.05  
##  6  2011     6        2011.    394.        0.458        2.09    -0.176   2.26  
##  7  2011     7        2012.    393.        0.542        0.858    0.388   0.471 
##  8  2011     8        2012.    390.        0.625       -1.52     0.0541 -1.58  
##  9  2011     9        2012.    389.        0.708       -2.57     0.392  -2.96  
## 10  2011    10        2012.    389.        0.792       -2.66     0.0151 -2.68  
## # … with 109 more rows
…
If you want confidence intervals on the fitted values, use the confint function together with the name of the smooth you are extracting. Be aware that this function does not include the intercept (or grand mean) from the model, so the values are all centred on zero.

confint(g1, "s(year_fraction)", level = 0.95)

## # A tibble: 200 x 8
##    smooth           by_variable year_fraction    est     se  crit  lower  upper
##    <chr>            <fct>               <dbl>  <dbl>  <dbl> <dbl>  <dbl>  <dbl>
##  1 s(year_fraction) <NA>               0.0417 -0.750 0.0912  1.96 -0.929 -0.572
##  2 s(year_fraction) <NA>               0.0463 -0.716 0.0858  1.96 -0.884 -0.548
##  3 s(year_fraction) <NA>               0.0509 -0.682 0.0810  1.96 -0.841 -0.523
##  4 s(year_fraction) <NA>               0.0555 -0.648 0.0769  1.96 -0.798 -0.497
##  5 s(year_fraction) <NA>               0.0601 -0.613 0.0735  1.96 -0.757 -0.470
##  6 s(year_fraction) <NA>               0.0647 -0.579 0.0709  1.96 -0.718 -0.440
##  7 s(year_fraction) <NA>               0.0693 -0.544 0.0691  1.96 -0.680 -0.409
##  8 s(year_fraction) <NA>               0.0739 -0.509 0.0682  1.96 -0.643 -0.376
##  9 s(year_fraction) <NA>               0.0785 -0.474 0.0681  1.96 -0.608 -0.341
## 10 s(year_fraction) <NA>               0.0832 -0.439 0.0687  1.96 -0.573 -0.304
## # … with 190 more rows
…
We can use predict, residuals and augment on these model objects as we did for lm fits in the previous lesson.

augment(l1, se_fit = TRUE)

## # A tibble: 119 x 5
##    co2_anomaly year_fraction .fitted .se.fit   .resid
##          <dbl>         <dbl>   <dbl>   <dbl>    <dbl>
##  1      -0.322        0.0417  -1.19   0.128   0.866  
##  2       0.208        0.125    0.330  0.0784 -0.121  
##  3       0.948        0.208    1.49   0.0756 -0.538  
##  4       1.60         0.292    2.24   0.0811 -0.640  
##  5       2.54         0.375    2.75   0.0876 -0.207  
##  6       2.09         0.458    2.14   0.0876 -0.0534 
##  7       0.858        0.542    0.430  0.0876  0.428  
##  8      -1.52         0.625   -1.53   0.0876  0.00670
##  9      -2.57         0.708   -2.46   0.0812 -0.116  
## 10      -2.66         0.792   -2.39   0.0757 -0.274  
## # … with 109 more rows
…
